<?xml version='1.0' encoding='UTF-8'?>
<glyph name="epsilonpsilivaria" format="2">
  <advance width="492"/>
  <unicode hex="1F12"/>
  <outline>
    <component base="epsilon"/>
    <component base="psilivaria" xOffset="-29"/>
  </outline>
</glyph>
